<?xml version="1.0" encoding="UTF-8"?>
<!DOCTYPE svg PUBLIC "-//W3C//DTD SVG 1.1//EN" "http://www.w3.org/Graphics/SVG/1.1/DTD/svg11.dtd">
<!-- Creator: CorelDRAW X7 -->
<svg xmlns="http://www.w3.org/2000/svg" xml:space="preserve" width="12.6782mm" height="11.7025mm" version="1.1" style="shape-rendering:geometricPrecision; text-rendering:geometricPrecision; image-rendering:optimizeQuality; fill-rule:evenodd; clip-rule:evenodd"
viewBox="0 0 238 220"
 xmlns:xlink="http://www.w3.org/1999/xlink">
 <defs>
  <style type="text/css">
   <![CDATA[
    .str0 {stroke:#989898;stroke-width:4.77429}
    .fil0 {fill:#989898;fill-rule:nonzero}
   ]]>
  </style>
 </defs>
 <g id="Camada_x0020_1">
  <metadata id="CorelCorpID_0Corel-Layer"/>
  <path class="fil0" d="M235 94c-7,-6 -14,-12 -22,-18 -2,-2 -2,-3 -2,-5 0,-12 0,-23 0,-34 0,-6 -4,-10 -10,-9 -5,0 -8,4 -8,9 -1,7 0,14 0,21 -1,0 -2,-1 -2,-1 -14,-12 -28,-23 -42,-35 -8,-7 -16,-13 -24,-19 -4,-4 -8,-4 -12,0 -2,1 -4,3 -6,5 -19,16 -38,31 -57,47 -15,13 -31,26 -46,38 -5,4 -5,10 -2,14 4,4 9,4 14,0 3,-3 7,-6 12,-9l0 4c0,36 0,72 0,108 0,6 3,10 9,10 55,0 109,0 164,0 6,0 10,-4 10,-10 0,-8 0,-17 0,-25 0,-25 0,-50 0,-74 0,-5 -2,-8 -6,-9 -6,-3 -12,2 -12,9 0,29 -1,58 0,88 0,2 -1,3 -4,3 -47,-1 -94,-1 -141,0 -2,0 -2,-1 -2,-3 0,-38 0,-76 0,-115 0,-1 0,-2 1,-3 24,-19 47,-39 71,-58 1,-1 1,-2 3,0 13,11 27,22 40,33 21,17 42,35 62,52 2,1 3,2 5,2 4,0 8,-2 9,-5 2,-4 2,-8 -2,-11z"/>
  <g id="_2150282908832">
   <path class="fil0 str0" d="M144 168c-8,0 -16,0 -25,0 -8,0 -17,0 -25,0 -1,0 -1,0 -1,-1 0,-14 0,-28 0,-41 0,-1 0,-1 1,-1 17,0 34,0 50,0 1,0 1,0 1,0 0,14 0,28 0,42 0,1 0,1 -1,1zm-42 -66c0,-4 2,-8 4,-11 4,-4 9,-6 15,-5 6,0 11,3 14,9 1,2 2,5 2,8 0,4 0,8 0,12 0,1 -1,1 -1,1 -6,0 -11,0 -17,0 -5,0 -11,0 -16,0 -1,0 -1,0 -1,-1 0,-4 0,-9 0,-13zm52 44c0,-7 0,-14 0,-21 0,-5 -3,-9 -8,-9 -1,0 -1,0 -1,-1 0,-4 0,-8 0,-12 0,-4 -1,-8 -3,-12 -5,-9 -12,-14 -22,-14 -5,0 -11,1 -15,4 -4,3 -7,6 -9,10 -2,4 -3,8 -3,13 0,4 0,7 0,11 0,1 0,1 -1,1 -1,0 -2,0 -3,1 -3,2 -4,4 -4,8 -1,4 0,8 0,12 0,10 0,21 0,31 0,2 0,3 1,5 2,3 4,4 8,4 8,0 17,0 25,0 9,0 17,0 26,0 2,0 4,-1 5,-2 3,-2 4,-4 4,-7 0,-8 0,-15 0,-22z"/>
   <path class="fil0 str0" d="M115 152c0,-2 0,-3 -2,-4 -4,-4 -3,-12 3,-14 4,-2 9,0 11,4 2,4 1,8 -3,11 0,0 0,1 0,1 0,2 0,4 -1,6 0,2 -2,3 -4,3 -2,0 -4,-1 -4,-3 0,-2 0,-3 0,-4z"/>
  </g>
 </g>
</svg>
