<?xml version="1.0" encoding="UTF-8"?>
<!DOCTYPE svg PUBLIC "-//W3C//DTD SVG 1.1//EN" "http://www.w3.org/Graphics/SVG/1.1/DTD/svg11.dtd">
<!-- Creator: CorelDRAW X7 -->
<svg xmlns="http://www.w3.org/2000/svg" xml:space="preserve" width="8.8107mm" height="11.2639mm" version="1.1" style="shape-rendering:geometricPrecision; text-rendering:geometricPrecision; image-rendering:optimizeQuality; fill-rule:evenodd; clip-rule:evenodd"
viewBox="0 0 122 156"
 xmlns:xlink="http://www.w3.org/1999/xlink">
 <defs>
  <style type="text/css">
   <![CDATA[
    .str0 {stroke:#989898;stroke-width:11.7409}
    .fil0 {fill:none;fill-rule:nonzero}
    .fil1 {fill:#989898}
   ]]>
  </style>
 </defs>
 <g id="Camada_x0020_1">
  <metadata id="CorelCorpID_0Corel-Layer"/>
  <path class="fil0 str0" d="M111 35c0,-3 0,-5 0,-8 0,-2 0,-2 -2,-2l-48 0c-16,0 -32,0 -48,0 -1,0 -2,0 -2,2 0,2 0,5 0,8 0,1 0,2 1,3 2,1 3,3 3,5 0,4 0,8 0,12 0,6 0,13 0,19 0,6 0,12 0,18 0,9 0,17 0,26 0,6 0,13 0,20 0,6 4,11 10,12 3,1 7,0 11,0 19,0 39,0 58,0 4,0 8,-1 10,-4 2,-2 3,-5 3,-8 0,-31 0,-62 0,-92 0,-4 1,-6 3,-8 1,-1 1,-2 1,-3z"/>
  <rect class="fil1" width="122.19" height="14.9834" rx="9" ry="8"/>
  <g id="_2150255019872">
   <rect class="fil1" transform="matrix(1.44679E-014 -0.755105 0.546277 1.99986E-014 34.1536 131.496)" width="113.121" height="14.9834" rx="8" ry="8"/>
   <rect class="fil1" transform="matrix(1.44679E-014 -0.755105 0.546277 1.99986E-014 57.0031 131.496)" width="113.121" height="14.9834" rx="8" ry="8"/>
   <rect class="fil1" transform="matrix(1.44679E-014 -0.755105 0.546277 1.99986E-014 79.8526 131.496)" width="113.121" height="14.9834" rx="8" ry="8"/>
  </g>
 </g>
</svg>
