<?xml version="1.0" encoding="UTF-8"?>
<!DOCTYPE svg PUBLIC "-//W3C//DTD SVG 1.1//EN" "http://www.w3.org/Graphics/SVG/1.1/DTD/svg11.dtd">
<!-- Creator: CorelDRAW X7 -->
<svg xmlns="http://www.w3.org/2000/svg" xml:space="preserve" width="13.0811mm" height="9.213mm" version="1.1" style="shape-rendering:geometricPrecision; text-rendering:geometricPrecision; image-rendering:optimizeQuality; fill-rule:evenodd; clip-rule:evenodd"
viewBox="0 0 252 177"
 xmlns:xlink="http://www.w3.org/1999/xlink">
 <defs>
  <style type="text/css">
   <![CDATA[
    .fil0 {fill:#989898;fill-rule:nonzero}
   ]]>
  </style>
 </defs>
 <g id="Camada_x0020_1">
  <metadata id="CorelCorpID_0Corel-Layer"/>
  <g id="_2150255530064">
   <path class="fil0" d="M43 116c0,-10 0,-19 0,-29 0,-3 -1,-4 -3,-4 -11,1 -21,1 -31,0 -6,0 -9,-2 -9,-7 0,-4 3,-7 9,-7 11,0 22,0 33,0 6,0 11,2 14,7 1,2 2,2 3,2 9,0 18,0 27,1 15,1 28,4 40,12 2,1 5,2 6,4 2,3 5,3 8,3 9,0 19,0 28,0 10,0 19,8 20,17 1,11 -5,21 -15,23 -2,1 -5,1 -7,1 -16,0 -33,0 -49,0 -5,0 -8,-2 -9,-6 0,-4 2,-7 5,-8 2,-1 3,-1 5,-1 16,0 32,0 48,0 1,0 3,0 4,0 2,-1 4,-3 4,-5 0,-3 -2,-4 -4,-6 -1,0 -3,0 -4,0 -11,0 -22,0 -34,0 -2,0 -4,-1 -6,-3 -8,-10 -19,-13 -31,-15 -6,-2 -11,-2 -17,-2 -2,0 -3,1 -3,3 0,16 0,31 0,47 0,2 0,2 2,3 16,5 33,10 49,15 12,3 23,3 35,-3 9,-5 19,-10 28,-14 15,-8 29,-15 43,-23 1,0 3,-1 4,-2 1,0 2,-1 1,-2 0,-2 -1,-2 -3,-2 -1,0 -3,1 -5,1 -9,3 -18,6 -27,9 -3,1 -6,0 -8,-3 -2,-2 -2,-5 0,-8 1,-1 2,-2 3,-3 11,-3 22,-7 33,-10 8,-2 16,1 20,7 5,9 1,20 -8,25 -6,3 -13,6 -19,10 -18,9 -36,18 -54,28 -18,8 -35,8 -53,3 -19,-6 -38,-12 -57,-18 -2,-1 -3,-1 -5,1 -2,4 -6,5 -11,5 -12,0 -23,0 -35,0 -5,0 -8,-3 -8,-7 0,-4 3,-7 8,-7 10,0 21,0 32,0 3,0 3,-1 3,-3 0,-10 0,-20 0,-29z"/>
   <g>
    <path class="fil0" d="M181 1c-7,-3 -13,2 -13,9 0,11 0,22 0,32l0 1 0 0 0 0c0,11 0,21 0,31 0,8 6,13 13,10 4,-2 6,-5 6,-10 0,-16 0,-31 0,-47l0 0 0 -17c0,-4 -2,-8 -6,-9z"/>
    <path class="fil0" d="M136 39c-3,6 2,13 9,13 11,0 21,0 32,0l0 0 1 0 0 0c10,0 21,0 31,0 8,0 12,-7 10,-13 -2,-4 -5,-6 -10,-6 -16,0 -32,0 -48,0l0 0 -16 0c-4,0 -8,2 -9,6z"/>
   </g>
  </g>
 </g>
</svg>
