<?xml version="1.0" encoding="UTF-8"?>
<!DOCTYPE svg PUBLIC "-//W3C//DTD SVG 1.1//EN" "http://www.w3.org/Graphics/SVG/1.1/DTD/svg11.dtd">
<!-- Creator: CorelDRAW X7 -->
<svg xmlns="http://www.w3.org/2000/svg" xml:space="preserve" width="12.5117mm" height="11.5489mm" version="1.1" style="shape-rendering:geometricPrecision; text-rendering:geometricPrecision; image-rendering:optimizeQuality; fill-rule:evenodd; clip-rule:evenodd"
viewBox="0 0 232 214"
 xmlns:xlink="http://www.w3.org/1999/xlink">
 <defs>
  <style type="text/css">
   <![CDATA[
    .str0 {stroke:#989898;stroke-width:3.71427}
    .fil1 {fill:none}
    .fil0 {fill:#989898;fill-rule:nonzero}
   ]]>
  </style>
 </defs>
 <g id="Camada_x0020_1">
  <metadata id="CorelCorpID_0Corel-Layer"/>
  <path class="fil0" d="M98 119c0,-2 1,-3 3,-3 10,0 20,0 30,0 2,0 3,1 3,3 0,25 0,50 0,75 0,2 0,3 -2,3 -11,0 -21,0 -31,0 -2,0 -3,-1 -3,-3 0,-12 0,-25 0,-38l0 0c0,-12 0,-25 0,-37zm131 -27c-7,-6 -14,-12 -21,-18 -2,-2 -3,-3 -3,-5 1,-11 1,-22 0,-33 0,-5 -4,-9 -9,-9 -5,0 -8,4 -8,9 0,7 0,13 0,20 -1,0 -2,0 -2,0 -14,-12 -27,-23 -41,-35 -8,-6 -15,-12 -23,-19 -4,-3 -8,-3 -12,1 -2,1 -4,3 -6,5 -19,15 -37,30 -55,46 -15,12 -30,25 -45,37 -5,4 -5,9 -2,13 4,4 9,4 13,1 4,-3 8,-6 12,-10l0 4c0,35 0,71 0,106 0,6 3,9 9,9 53,0 107,0 160,0 6,0 9,-3 9,-9 1,-8 1,-17 1,-25 0,-24 0,-48 -1,-72 0,-4 -1,-8 -5,-9 -6,-3 -12,2 -12,9 0,29 0,57 0,86 0,2 -1,3 -3,3 -10,0 -20,0 -30,0 -2,0 -3,-1 -3,-4 0,-28 0,-56 0,-84 0,-7 -3,-11 -11,-11 -16,0 -33,0 -50,0 -7,0 -11,4 -11,11 0,28 0,57 0,85 0,2 1,3 -2,3 -10,0 -21,0 -31,0 -2,0 -2,-1 -2,-3 0,-37 0,-75 0,-112 0,-1 0,-2 1,-3 23,-19 46,-38 69,-57 1,-1 1,-1 3,0 13,11 26,22 39,33 20,17 40,33 61,50 1,1 3,2 5,2 3,1 7,-2 8,-5 2,-4 1,-8 -2,-10z"/>
  <rect class="fil1 str0" x="83" y="109" width="62.9606" height="91.4137"/>
 </g>
</svg>
